G04 #@! TF.GenerationSoftware,KiCad,Pcbnew,6.0.9-8da3e8f707~116~ubuntu22.04.1*
G04 #@! TF.CreationDate,2022-11-12T13:56:02-05:00*
G04 #@! TF.ProjectId,KosmoVoltsPanel,4b6f736d-6f56-46f6-9c74-7350616e656c,rev?*
G04 #@! TF.SameCoordinates,Original*
G04 #@! TF.FileFunction,Copper,L2,Bot*
G04 #@! TF.FilePolarity,Positive*
%FSLAX46Y46*%
G04 Gerber Fmt 4.6, Leading zero omitted, Abs format (unit mm)*
G04 Created by KiCad (PCBNEW 6.0.9-8da3e8f707~116~ubuntu22.04.1) date 2022-11-12 13:56:02*
%MOMM*%
%LPD*%
G01*
G04 APERTURE LIST*
G04 #@! TA.AperFunction,ComponentPad*
%ADD10O,6.800000X4.000000*%
G04 #@! TD*
G04 #@! TA.AperFunction,ComponentPad*
%ADD11C,9.000000*%
G04 #@! TD*
G04 #@! TA.AperFunction,ComponentPad*
%ADD12C,14.000000*%
G04 #@! TD*
G04 APERTURE END LIST*
D10*
G04 #@! TO.P,H9,1,1*
G04 #@! TO.N,GND*
X120600000Y-197000000D03*
G04 #@! TD*
D11*
G04 #@! TO.P,H6,1,1*
G04 #@! TO.N,GND*
X110000000Y-87500000D03*
G04 #@! TD*
D10*
G04 #@! TO.P,H1,1,1*
G04 #@! TO.N,GND*
X79500000Y-197000000D03*
G04 #@! TD*
D11*
G04 #@! TO.P,H3,1,1*
G04 #@! TO.N,GND*
X110000000Y-137500000D03*
G04 #@! TD*
G04 #@! TO.P,H5,1,1*
G04 #@! TO.N,GND*
X90000000Y-62500000D03*
G04 #@! TD*
D10*
G04 #@! TO.P,H2,1,1*
G04 #@! TO.N,GND*
X79400000Y-3000000D03*
G04 #@! TD*
D11*
G04 #@! TO.P,H4,1,1*
G04 #@! TO.N,GND*
X110000000Y-37500000D03*
G04 #@! TD*
D12*
G04 #@! TO.P,H8,1,1*
G04 #@! TO.N,GND*
X100000000Y-175000000D03*
G04 #@! TD*
D11*
G04 #@! TO.P,H7,1,1*
G04 #@! TO.N,GND*
X90000000Y-112500000D03*
G04 #@! TD*
D10*
G04 #@! TO.P,H10,1,1*
G04 #@! TO.N,GND*
X120600000Y-3000000D03*
G04 #@! TD*
G04 #@! TA.AperFunction,Conductor*
G04 #@! TO.N,GND*
G36*
X118108761Y-528502D02*
G01*
X118155254Y-582158D01*
X118165358Y-652432D01*
X118135864Y-717012D01*
X118094288Y-748508D01*
X117992959Y-796190D01*
X117986026Y-800001D01*
X117726271Y-964847D01*
X117719868Y-969498D01*
X117482813Y-1165607D01*
X117477046Y-1171023D01*
X117266443Y-1395293D01*
X117261404Y-1401384D01*
X117080570Y-1650281D01*
X117076330Y-1656961D01*
X116928110Y-1926572D01*
X116924753Y-1933707D01*
X116811492Y-2219770D01*
X116809047Y-2227296D01*
X116732538Y-2525279D01*
X116731055Y-2533050D01*
X116706425Y-2728026D01*
X116708728Y-2742306D01*
X116721720Y-2746000D01*
X120728000Y-2746000D01*
X120796121Y-2766002D01*
X120842614Y-2819658D01*
X120854000Y-2872000D01*
X120854000Y-5489885D01*
X120858475Y-5505124D01*
X120859865Y-5506329D01*
X120867548Y-5508000D01*
X122076829Y-5508000D01*
X122080820Y-5507874D01*
X122310994Y-5493393D01*
X122318855Y-5492400D01*
X122621046Y-5434754D01*
X122628723Y-5432783D01*
X122921309Y-5337716D01*
X122928672Y-5334801D01*
X123207041Y-5203811D01*
X123213974Y-5199999D01*
X123473729Y-5035153D01*
X123480132Y-5030502D01*
X123717187Y-4834393D01*
X123722954Y-4828977D01*
X123933557Y-4604707D01*
X123938596Y-4598616D01*
X124119430Y-4349719D01*
X124123670Y-4343039D01*
X124255085Y-4103996D01*
X124305431Y-4053937D01*
X124374848Y-4039044D01*
X124441297Y-4064045D01*
X124483681Y-4121002D01*
X124491500Y-4164697D01*
X124491500Y-195835303D01*
X124471498Y-195903424D01*
X124417842Y-195949917D01*
X124347568Y-195960021D01*
X124282988Y-195930527D01*
X124255085Y-195896004D01*
X124123670Y-195656961D01*
X124119430Y-195650281D01*
X123938596Y-195401384D01*
X123933557Y-195395293D01*
X123722954Y-195171023D01*
X123717187Y-195165607D01*
X123480132Y-194969498D01*
X123473729Y-194964847D01*
X123213974Y-194800001D01*
X123207041Y-194796189D01*
X122928672Y-194665199D01*
X122921309Y-194662284D01*
X122628723Y-194567217D01*
X122621046Y-194565246D01*
X122318855Y-194507600D01*
X122310994Y-194506607D01*
X122080820Y-194492126D01*
X122076829Y-194492000D01*
X120872115Y-194492000D01*
X120856876Y-194496475D01*
X120855671Y-194497865D01*
X120854000Y-194505548D01*
X120854000Y-197128000D01*
X120833998Y-197196121D01*
X120780342Y-197242614D01*
X120728000Y-197254000D01*
X116722269Y-197254000D01*
X116708392Y-197258075D01*
X116706355Y-197271426D01*
X116731055Y-197466950D01*
X116732538Y-197474721D01*
X116809047Y-197772704D01*
X116811492Y-197780230D01*
X116924753Y-198066293D01*
X116928110Y-198073428D01*
X117076330Y-198343039D01*
X117080570Y-198349719D01*
X117261404Y-198598616D01*
X117266443Y-198604707D01*
X117477046Y-198828977D01*
X117482813Y-198834393D01*
X117719868Y-199030502D01*
X117726271Y-199035153D01*
X117986026Y-199199999D01*
X117992959Y-199203810D01*
X118094288Y-199251492D01*
X118147409Y-199298594D01*
X118166632Y-199366939D01*
X118145853Y-199434827D01*
X118091670Y-199480704D01*
X118040640Y-199491500D01*
X82059360Y-199491500D01*
X81991239Y-199471498D01*
X81944746Y-199417842D01*
X81934642Y-199347568D01*
X81964136Y-199282988D01*
X82005712Y-199251492D01*
X82107041Y-199203810D01*
X82113974Y-199199999D01*
X82373729Y-199035153D01*
X82380132Y-199030502D01*
X82617187Y-198834393D01*
X82622954Y-198828977D01*
X82833557Y-198604707D01*
X82838596Y-198598616D01*
X83019430Y-198349719D01*
X83023670Y-198343039D01*
X83171890Y-198073428D01*
X83175247Y-198066293D01*
X83288508Y-197780230D01*
X83290953Y-197772704D01*
X83367462Y-197474721D01*
X83368945Y-197466950D01*
X83393575Y-197271974D01*
X83391272Y-197257694D01*
X83378280Y-197254000D01*
X79372000Y-197254000D01*
X79303879Y-197233998D01*
X79257386Y-197180342D01*
X79246000Y-197128000D01*
X79246000Y-196727885D01*
X79754000Y-196727885D01*
X79758475Y-196743124D01*
X79759865Y-196744329D01*
X79767548Y-196746000D01*
X83377731Y-196746000D01*
X83391608Y-196741925D01*
X83393645Y-196728574D01*
X83393576Y-196728026D01*
X116706425Y-196728026D01*
X116708728Y-196742306D01*
X116721720Y-196746000D01*
X120327885Y-196746000D01*
X120343124Y-196741525D01*
X120344329Y-196740135D01*
X120346000Y-196732452D01*
X120346000Y-194510115D01*
X120341525Y-194494876D01*
X120340135Y-194493671D01*
X120332452Y-194492000D01*
X119123171Y-194492000D01*
X119119180Y-194492126D01*
X118889006Y-194506607D01*
X118881145Y-194507600D01*
X118578954Y-194565246D01*
X118571277Y-194567217D01*
X118278691Y-194662284D01*
X118271328Y-194665199D01*
X117992959Y-194796189D01*
X117986026Y-194800001D01*
X117726271Y-194964847D01*
X117719868Y-194969498D01*
X117482813Y-195165607D01*
X117477046Y-195171023D01*
X117266443Y-195395293D01*
X117261404Y-195401384D01*
X117080570Y-195650281D01*
X117076330Y-195656961D01*
X116928110Y-195926572D01*
X116924753Y-195933707D01*
X116811492Y-196219770D01*
X116809047Y-196227296D01*
X116732538Y-196525279D01*
X116731055Y-196533050D01*
X116706425Y-196728026D01*
X83393576Y-196728026D01*
X83368945Y-196533050D01*
X83367462Y-196525279D01*
X83290953Y-196227296D01*
X83288508Y-196219770D01*
X83175247Y-195933707D01*
X83171890Y-195926572D01*
X83023670Y-195656961D01*
X83019430Y-195650281D01*
X82838596Y-195401384D01*
X82833557Y-195395293D01*
X82622954Y-195171023D01*
X82617187Y-195165607D01*
X82380132Y-194969498D01*
X82373729Y-194964847D01*
X82113974Y-194800001D01*
X82107041Y-194796189D01*
X81828672Y-194665199D01*
X81821309Y-194662284D01*
X81528723Y-194567217D01*
X81521046Y-194565246D01*
X81218855Y-194507600D01*
X81210994Y-194506607D01*
X80980820Y-194492126D01*
X80976829Y-194492000D01*
X79772115Y-194492000D01*
X79756876Y-194496475D01*
X79755671Y-194497865D01*
X79754000Y-194505548D01*
X79754000Y-196727885D01*
X79246000Y-196727885D01*
X79246000Y-194510115D01*
X79241525Y-194494876D01*
X79240135Y-194493671D01*
X79232452Y-194492000D01*
X78023171Y-194492000D01*
X78019180Y-194492126D01*
X77789006Y-194506607D01*
X77781145Y-194507600D01*
X77478954Y-194565246D01*
X77471277Y-194567217D01*
X77178691Y-194662284D01*
X77171328Y-194665199D01*
X76892959Y-194796189D01*
X76886026Y-194800001D01*
X76626271Y-194964847D01*
X76619868Y-194969498D01*
X76382813Y-195165607D01*
X76377046Y-195171023D01*
X76166443Y-195395293D01*
X76161404Y-195401384D01*
X75980570Y-195650281D01*
X75976330Y-195656961D01*
X75828110Y-195926572D01*
X75824753Y-195933707D01*
X75751652Y-196118338D01*
X75707977Y-196174312D01*
X75640974Y-196197788D01*
X75571916Y-196181312D01*
X75522727Y-196130117D01*
X75508500Y-196071954D01*
X75508500Y-180487102D01*
X94878438Y-180487102D01*
X94878462Y-180487441D01*
X94884285Y-180496073D01*
X95128991Y-180719913D01*
X95132445Y-180722852D01*
X95550430Y-181053550D01*
X95554067Y-181056222D01*
X95994618Y-181356182D01*
X95998446Y-181358593D01*
X96459337Y-181626300D01*
X96463309Y-181628421D01*
X96942148Y-181862483D01*
X96946284Y-181864325D01*
X97440627Y-182063551D01*
X97444871Y-182065087D01*
X97952218Y-182228467D01*
X97956539Y-182229689D01*
X98474254Y-182356374D01*
X98478695Y-182357294D01*
X99004141Y-182446637D01*
X99008595Y-182447232D01*
X99539106Y-182498782D01*
X99543579Y-182499056D01*
X100076427Y-182512543D01*
X100080930Y-182512496D01*
X100613352Y-182487853D01*
X100617836Y-182487485D01*
X101147152Y-182424836D01*
X101151591Y-182424149D01*
X101675087Y-182323814D01*
X101679446Y-182322815D01*
X102194414Y-182185311D01*
X102198727Y-182183992D01*
X102702525Y-182010028D01*
X102706740Y-182008402D01*
X103196805Y-181798866D01*
X103200892Y-181796943D01*
X103674731Y-181552900D01*
X103678658Y-181550696D01*
X104133828Y-181273404D01*
X104137624Y-181270901D01*
X104571786Y-180961788D01*
X104575372Y-180959036D01*
X104986362Y-180619640D01*
X104989705Y-180616672D01*
X105113630Y-180498453D01*
X105121568Y-180484695D01*
X105121518Y-180483649D01*
X105116625Y-180475835D01*
X100012812Y-175372022D01*
X99998868Y-175364408D01*
X99997035Y-175364539D01*
X99990420Y-175368790D01*
X94886052Y-180473158D01*
X94878438Y-180487102D01*
X75508500Y-180487102D01*
X75508500Y-175050201D01*
X92487236Y-175050201D01*
X92487267Y-175054699D01*
X92510052Y-175587215D01*
X92510404Y-175591696D01*
X92571206Y-176121240D01*
X92571874Y-176125659D01*
X92670381Y-176649497D01*
X92671370Y-176653884D01*
X92807070Y-177169308D01*
X92808381Y-177173648D01*
X92980581Y-177678039D01*
X92982188Y-177682249D01*
X93190028Y-178173079D01*
X93191917Y-178177129D01*
X93434314Y-178651836D01*
X93436507Y-178655776D01*
X93712217Y-179111925D01*
X93714678Y-179115685D01*
X94022290Y-179550947D01*
X94025036Y-179554552D01*
X94362987Y-179966712D01*
X94365944Y-179970066D01*
X94501751Y-180113428D01*
X94515482Y-180121415D01*
X94516410Y-180121374D01*
X94524399Y-180116391D01*
X99627978Y-175012812D01*
X99634356Y-175001132D01*
X100364408Y-175001132D01*
X100364539Y-175002965D01*
X100368790Y-175009580D01*
X105473389Y-180114179D01*
X105487333Y-180121793D01*
X105487556Y-180121778D01*
X105496338Y-180115831D01*
X105736905Y-179850987D01*
X105739793Y-179847570D01*
X106069044Y-179428414D01*
X106071701Y-179424771D01*
X106370130Y-178983164D01*
X106372526Y-178979329D01*
X106638617Y-178517514D01*
X106640726Y-178513531D01*
X106873116Y-178033878D01*
X106874941Y-178029741D01*
X107072446Y-177534690D01*
X107073961Y-177530460D01*
X107235567Y-177022549D01*
X107236781Y-177018202D01*
X107361661Y-176500034D01*
X107362555Y-176495638D01*
X107450064Y-175969885D01*
X107450649Y-175965380D01*
X107500363Y-175434517D01*
X107500613Y-175430439D01*
X107512954Y-175002024D01*
X107512939Y-174997967D01*
X107493866Y-174465096D01*
X107493544Y-174460601D01*
X107436442Y-173930662D01*
X107435800Y-173926211D01*
X107340955Y-173401710D01*
X107339999Y-173397327D01*
X107207892Y-172880933D01*
X107206630Y-172876645D01*
X107037938Y-172371015D01*
X107036370Y-172366818D01*
X106831966Y-171874558D01*
X106830088Y-171870456D01*
X106591023Y-171394094D01*
X106588855Y-171390133D01*
X106316347Y-170932090D01*
X106313891Y-170928279D01*
X106009331Y-170490890D01*
X106006624Y-170487284D01*
X105671552Y-170072765D01*
X105668609Y-170069380D01*
X105498034Y-169886780D01*
X105484361Y-169878698D01*
X105483667Y-169878724D01*
X105475320Y-169883890D01*
X100372022Y-174987188D01*
X100364408Y-175001132D01*
X99634356Y-175001132D01*
X99635592Y-174998868D01*
X99635461Y-174997035D01*
X99631210Y-174990420D01*
X94527007Y-169886217D01*
X94513063Y-169878603D01*
X94512606Y-169878635D01*
X94504130Y-169884332D01*
X94297104Y-170109077D01*
X94294190Y-170112477D01*
X93962015Y-170529331D01*
X93959344Y-170532941D01*
X93657831Y-170972465D01*
X93655409Y-170976283D01*
X93386107Y-171436216D01*
X93383964Y-171440196D01*
X93148233Y-171918211D01*
X93146376Y-171922343D01*
X92945427Y-172415984D01*
X92943874Y-172420230D01*
X92778729Y-172926984D01*
X92777484Y-172931326D01*
X92648991Y-173448608D01*
X92648067Y-173452991D01*
X92556885Y-173978152D01*
X92556274Y-173982609D01*
X92502873Y-174512930D01*
X92502583Y-174517413D01*
X92487236Y-175050201D01*
X75508500Y-175050201D01*
X75508500Y-169515591D01*
X94878674Y-169515591D01*
X94878707Y-169516404D01*
X94883783Y-169524573D01*
X99987188Y-174627978D01*
X100001132Y-174635592D01*
X100002965Y-174635461D01*
X100009580Y-174631210D01*
X105113682Y-169527108D01*
X105121296Y-169513164D01*
X105121255Y-169512590D01*
X105115684Y-169504268D01*
X104910818Y-169314228D01*
X104907387Y-169311267D01*
X104491729Y-168977666D01*
X104488115Y-168974972D01*
X104049654Y-168671933D01*
X104045835Y-168669490D01*
X103586846Y-168398585D01*
X103582877Y-168396430D01*
X103105679Y-168159028D01*
X103101575Y-168157166D01*
X102608610Y-167954483D01*
X102604395Y-167952924D01*
X102098199Y-167786006D01*
X102093883Y-167784752D01*
X101577042Y-167654451D01*
X101572665Y-167653513D01*
X101047822Y-167560496D01*
X101043365Y-167559870D01*
X100513241Y-167504620D01*
X100508747Y-167504313D01*
X99976027Y-167487107D01*
X99971530Y-167487122D01*
X99438927Y-167508048D01*
X99434451Y-167508384D01*
X98904713Y-167567336D01*
X98900261Y-167567994D01*
X98376106Y-167664667D01*
X98371701Y-167665643D01*
X97855801Y-167799545D01*
X97851490Y-167800830D01*
X97346471Y-167971278D01*
X97342259Y-167972870D01*
X96850723Y-168178988D01*
X96846647Y-168180871D01*
X96371109Y-168421605D01*
X96367158Y-168423786D01*
X95910063Y-168697893D01*
X95906267Y-168700358D01*
X95469930Y-169006452D01*
X95466347Y-169009162D01*
X95053007Y-169345674D01*
X95049617Y-169348642D01*
X94886708Y-169501891D01*
X94878674Y-169515591D01*
X75508500Y-169515591D01*
X75508500Y-141217924D01*
X106647616Y-141217924D01*
X106647665Y-141218616D01*
X106653111Y-141226781D01*
X106742226Y-141310027D01*
X106746503Y-141313681D01*
X107093829Y-141584553D01*
X107098386Y-141587792D01*
X107468432Y-141826727D01*
X107473261Y-141829549D01*
X107863048Y-142034626D01*
X107868150Y-142037027D01*
X108274633Y-142206647D01*
X108279888Y-142208570D01*
X108699860Y-142341389D01*
X108705259Y-142342836D01*
X109135375Y-142437796D01*
X109140886Y-142438758D01*
X109577749Y-142495110D01*
X109583312Y-142495577D01*
X110023453Y-142512869D01*
X110029045Y-142512840D01*
X110468965Y-142490940D01*
X110474548Y-142490412D01*
X110910788Y-142429490D01*
X110916275Y-142428473D01*
X111345381Y-142329012D01*
X111350767Y-142327508D01*
X111769333Y-142190296D01*
X111774550Y-142188324D01*
X112179260Y-142014447D01*
X112184303Y-142012009D01*
X112571943Y-141802850D01*
X112576747Y-141799975D01*
X112944239Y-141557198D01*
X112948802Y-141553883D01*
X113293266Y-141279393D01*
X113297481Y-141275716D01*
X113345286Y-141230112D01*
X113353226Y-141216352D01*
X113353176Y-141215307D01*
X113348285Y-141207495D01*
X110012812Y-137872022D01*
X109998868Y-137864408D01*
X109997035Y-137864539D01*
X109990420Y-137868790D01*
X106655230Y-141203980D01*
X106647616Y-141217924D01*
X75508500Y-141217924D01*
X75508500Y-137371585D01*
X104988722Y-137371585D01*
X104996793Y-137811981D01*
X104997143Y-137817547D01*
X105044333Y-138255491D01*
X105045180Y-138261030D01*
X105131112Y-138693042D01*
X105132441Y-138698453D01*
X105256444Y-139121138D01*
X105258250Y-139126413D01*
X105419326Y-139536377D01*
X105421608Y-139541501D01*
X105618485Y-139935516D01*
X105621209Y-139940409D01*
X105852333Y-140315363D01*
X105855484Y-140319999D01*
X106119031Y-140672931D01*
X106122564Y-140677248D01*
X106271583Y-140843625D01*
X106285079Y-140851989D01*
X106294491Y-140846299D01*
X109627978Y-137512812D01*
X109634356Y-137501132D01*
X110364408Y-137501132D01*
X110364539Y-137502965D01*
X110368790Y-137509580D01*
X113703870Y-140844660D01*
X113717631Y-140852174D01*
X113726992Y-140845716D01*
X113910483Y-140636482D01*
X113913988Y-140632109D01*
X114173825Y-140276435D01*
X114176920Y-140271777D01*
X114404101Y-139894431D01*
X114406782Y-139889492D01*
X114599515Y-139493455D01*
X114601750Y-139488289D01*
X114758519Y-139076675D01*
X114760275Y-139071363D01*
X114879838Y-138647427D01*
X114881114Y-138641991D01*
X114962520Y-138209092D01*
X114963307Y-138203555D01*
X115005963Y-137764580D01*
X115006236Y-137760143D01*
X115012990Y-137502234D01*
X115012948Y-137497762D01*
X114993327Y-137057177D01*
X114992829Y-137051590D01*
X114934193Y-136615047D01*
X114933200Y-136609524D01*
X114835990Y-136179920D01*
X114834517Y-136174533D01*
X114699499Y-135755261D01*
X114697544Y-135750003D01*
X114525801Y-135344419D01*
X114523382Y-135339348D01*
X114316253Y-134950614D01*
X114313418Y-134945819D01*
X114072538Y-134577013D01*
X114069287Y-134572489D01*
X113796582Y-134226564D01*
X113792934Y-134222338D01*
X113729587Y-134155233D01*
X113715871Y-134147222D01*
X113715000Y-134147259D01*
X113706923Y-134152287D01*
X110372022Y-137487188D01*
X110364408Y-137501132D01*
X109634356Y-137501132D01*
X109635592Y-137498868D01*
X109635461Y-137497035D01*
X109631210Y-137490420D01*
X106293542Y-134152752D01*
X106280234Y-134145485D01*
X106270195Y-134152607D01*
X106008756Y-134466953D01*
X106005361Y-134471425D01*
X105754932Y-134833765D01*
X105751953Y-134838515D01*
X105534719Y-135221695D01*
X105532188Y-135226662D01*
X105349866Y-135627656D01*
X105347788Y-135632824D01*
X105201840Y-136048426D01*
X105200219Y-136053795D01*
X105091798Y-136480705D01*
X105090664Y-136486178D01*
X105020621Y-136921044D01*
X105019976Y-136926622D01*
X104988869Y-137365964D01*
X104988722Y-137371585D01*
X75508500Y-137371585D01*
X75508500Y-133782502D01*
X106646077Y-133782502D01*
X106652184Y-133792974D01*
X109987188Y-137127978D01*
X110001132Y-137135592D01*
X110002965Y-137135461D01*
X110009580Y-137131210D01*
X113344435Y-133796355D01*
X113351998Y-133782505D01*
X113345671Y-133773283D01*
X113156913Y-133605992D01*
X113152551Y-133602459D01*
X112798262Y-133340778D01*
X112793609Y-133337651D01*
X112417453Y-133108495D01*
X112412536Y-133105791D01*
X112017488Y-132910974D01*
X112012379Y-132908732D01*
X111601563Y-132749799D01*
X111596273Y-132748019D01*
X111172954Y-132626234D01*
X111167530Y-132624932D01*
X110735068Y-132541261D01*
X110729539Y-132540445D01*
X110291353Y-132495550D01*
X110285771Y-132495228D01*
X109845346Y-132489463D01*
X109839735Y-132489639D01*
X109400541Y-132523048D01*
X109394984Y-132523720D01*
X108960504Y-132596037D01*
X108955007Y-132597205D01*
X108528680Y-132707858D01*
X108523314Y-132709510D01*
X108108509Y-132857622D01*
X108103321Y-132859739D01*
X107703311Y-133044147D01*
X107698342Y-133046711D01*
X107316308Y-133265948D01*
X107311575Y-133268951D01*
X106950545Y-133521278D01*
X106946104Y-133524686D01*
X106654521Y-133769785D01*
X106646077Y-133782502D01*
X75508500Y-133782502D01*
X75508500Y-116217924D01*
X86647616Y-116217924D01*
X86647665Y-116218616D01*
X86653111Y-116226781D01*
X86742226Y-116310027D01*
X86746503Y-116313681D01*
X87093829Y-116584553D01*
X87098386Y-116587792D01*
X87468432Y-116826727D01*
X87473261Y-116829549D01*
X87863048Y-117034626D01*
X87868150Y-117037027D01*
X88274633Y-117206647D01*
X88279888Y-117208570D01*
X88699860Y-117341389D01*
X88705259Y-117342836D01*
X89135375Y-117437796D01*
X89140886Y-117438758D01*
X89577749Y-117495110D01*
X89583312Y-117495577D01*
X90023453Y-117512869D01*
X90029045Y-117512840D01*
X90468965Y-117490940D01*
X90474548Y-117490412D01*
X90910788Y-117429490D01*
X90916275Y-117428473D01*
X91345381Y-117329012D01*
X91350767Y-117327508D01*
X91769333Y-117190296D01*
X91774550Y-117188324D01*
X92179260Y-117014447D01*
X92184303Y-117012009D01*
X92571943Y-116802850D01*
X92576747Y-116799975D01*
X92944239Y-116557198D01*
X92948802Y-116553883D01*
X93293266Y-116279393D01*
X93297481Y-116275716D01*
X93345286Y-116230112D01*
X93353226Y-116216352D01*
X93353176Y-116215307D01*
X93348285Y-116207495D01*
X90012812Y-112872022D01*
X89998868Y-112864408D01*
X89997035Y-112864539D01*
X89990420Y-112868790D01*
X86655230Y-116203980D01*
X86647616Y-116217924D01*
X75508500Y-116217924D01*
X75508500Y-112371585D01*
X84988722Y-112371585D01*
X84996793Y-112811981D01*
X84997143Y-112817547D01*
X85044333Y-113255491D01*
X85045180Y-113261030D01*
X85131112Y-113693042D01*
X85132441Y-113698453D01*
X85256444Y-114121138D01*
X85258250Y-114126413D01*
X85419326Y-114536377D01*
X85421608Y-114541501D01*
X85618485Y-114935516D01*
X85621209Y-114940409D01*
X85852333Y-115315363D01*
X85855484Y-115319999D01*
X86119031Y-115672931D01*
X86122564Y-115677248D01*
X86271583Y-115843625D01*
X86285079Y-115851989D01*
X86294491Y-115846299D01*
X89627978Y-112512812D01*
X89634356Y-112501132D01*
X90364408Y-112501132D01*
X90364539Y-112502965D01*
X90368790Y-112509580D01*
X93703870Y-115844660D01*
X93717631Y-115852174D01*
X93726992Y-115845716D01*
X93910483Y-115636482D01*
X93913988Y-115632109D01*
X94173825Y-115276435D01*
X94176920Y-115271777D01*
X94404101Y-114894431D01*
X94406782Y-114889492D01*
X94599515Y-114493455D01*
X94601750Y-114488289D01*
X94758519Y-114076675D01*
X94760275Y-114071363D01*
X94879838Y-113647427D01*
X94881114Y-113641991D01*
X94962520Y-113209092D01*
X94963307Y-113203555D01*
X95005963Y-112764580D01*
X95006236Y-112760143D01*
X95012990Y-112502234D01*
X95012948Y-112497762D01*
X94993327Y-112057177D01*
X94992829Y-112051590D01*
X94934193Y-111615047D01*
X94933200Y-111609524D01*
X94835990Y-111179920D01*
X94834517Y-111174533D01*
X94699499Y-110755261D01*
X94697544Y-110750003D01*
X94525801Y-110344419D01*
X94523382Y-110339348D01*
X94316253Y-109950614D01*
X94313418Y-109945819D01*
X94072538Y-109577013D01*
X94069287Y-109572489D01*
X93796582Y-109226564D01*
X93792934Y-109222338D01*
X93729587Y-109155233D01*
X93715871Y-109147222D01*
X93715000Y-109147259D01*
X93706923Y-109152287D01*
X90372022Y-112487188D01*
X90364408Y-112501132D01*
X89634356Y-112501132D01*
X89635592Y-112498868D01*
X89635461Y-112497035D01*
X89631210Y-112490420D01*
X86293542Y-109152752D01*
X86280234Y-109145485D01*
X86270195Y-109152607D01*
X86008756Y-109466953D01*
X86005361Y-109471425D01*
X85754932Y-109833765D01*
X85751953Y-109838515D01*
X85534719Y-110221695D01*
X85532188Y-110226662D01*
X85349866Y-110627656D01*
X85347788Y-110632824D01*
X85201840Y-111048426D01*
X85200219Y-111053795D01*
X85091798Y-111480705D01*
X85090664Y-111486178D01*
X85020621Y-111921044D01*
X85019976Y-111926622D01*
X84988869Y-112365964D01*
X84988722Y-112371585D01*
X75508500Y-112371585D01*
X75508500Y-108782502D01*
X86646077Y-108782502D01*
X86652184Y-108792974D01*
X89987188Y-112127978D01*
X90001132Y-112135592D01*
X90002965Y-112135461D01*
X90009580Y-112131210D01*
X93344435Y-108796355D01*
X93351998Y-108782505D01*
X93345671Y-108773283D01*
X93156913Y-108605992D01*
X93152551Y-108602459D01*
X92798262Y-108340778D01*
X92793609Y-108337651D01*
X92417453Y-108108495D01*
X92412536Y-108105791D01*
X92017488Y-107910974D01*
X92012379Y-107908732D01*
X91601563Y-107749799D01*
X91596273Y-107748019D01*
X91172954Y-107626234D01*
X91167530Y-107624932D01*
X90735068Y-107541261D01*
X90729539Y-107540445D01*
X90291353Y-107495550D01*
X90285771Y-107495228D01*
X89845346Y-107489463D01*
X89839735Y-107489639D01*
X89400541Y-107523048D01*
X89394984Y-107523720D01*
X88960504Y-107596037D01*
X88955007Y-107597205D01*
X88528680Y-107707858D01*
X88523314Y-107709510D01*
X88108509Y-107857622D01*
X88103321Y-107859739D01*
X87703311Y-108044147D01*
X87698342Y-108046711D01*
X87316308Y-108265948D01*
X87311575Y-108268951D01*
X86950545Y-108521278D01*
X86946104Y-108524686D01*
X86654521Y-108769785D01*
X86646077Y-108782502D01*
X75508500Y-108782502D01*
X75508500Y-91217924D01*
X106647616Y-91217924D01*
X106647665Y-91218616D01*
X106653111Y-91226781D01*
X106742226Y-91310027D01*
X106746503Y-91313681D01*
X107093829Y-91584553D01*
X107098386Y-91587792D01*
X107468432Y-91826727D01*
X107473261Y-91829549D01*
X107863048Y-92034626D01*
X107868150Y-92037027D01*
X108274633Y-92206647D01*
X108279888Y-92208570D01*
X108699860Y-92341389D01*
X108705259Y-92342836D01*
X109135375Y-92437796D01*
X109140886Y-92438758D01*
X109577749Y-92495110D01*
X109583312Y-92495577D01*
X110023453Y-92512869D01*
X110029045Y-92512840D01*
X110468965Y-92490940D01*
X110474548Y-92490412D01*
X110910788Y-92429490D01*
X110916275Y-92428473D01*
X111345381Y-92329012D01*
X111350767Y-92327508D01*
X111769333Y-92190296D01*
X111774550Y-92188324D01*
X112179260Y-92014447D01*
X112184303Y-92012009D01*
X112571943Y-91802850D01*
X112576747Y-91799975D01*
X112944239Y-91557198D01*
X112948802Y-91553883D01*
X113293266Y-91279393D01*
X113297481Y-91275716D01*
X113345286Y-91230112D01*
X113353226Y-91216352D01*
X113353176Y-91215307D01*
X113348285Y-91207495D01*
X110012812Y-87872022D01*
X109998868Y-87864408D01*
X109997035Y-87864539D01*
X109990420Y-87868790D01*
X106655230Y-91203980D01*
X106647616Y-91217924D01*
X75508500Y-91217924D01*
X75508500Y-87371585D01*
X104988722Y-87371585D01*
X104996793Y-87811981D01*
X104997143Y-87817547D01*
X105044333Y-88255491D01*
X105045180Y-88261030D01*
X105131112Y-88693042D01*
X105132441Y-88698453D01*
X105256444Y-89121138D01*
X105258250Y-89126413D01*
X105419326Y-89536377D01*
X105421608Y-89541501D01*
X105618485Y-89935516D01*
X105621209Y-89940409D01*
X105852333Y-90315363D01*
X105855484Y-90319999D01*
X106119031Y-90672931D01*
X106122564Y-90677248D01*
X106271583Y-90843625D01*
X106285079Y-90851989D01*
X106294491Y-90846299D01*
X109627978Y-87512812D01*
X109634356Y-87501132D01*
X110364408Y-87501132D01*
X110364539Y-87502965D01*
X110368790Y-87509580D01*
X113703870Y-90844660D01*
X113717631Y-90852174D01*
X113726992Y-90845716D01*
X113910483Y-90636482D01*
X113913988Y-90632109D01*
X114173825Y-90276435D01*
X114176920Y-90271777D01*
X114404101Y-89894431D01*
X114406782Y-89889492D01*
X114599515Y-89493455D01*
X114601750Y-89488289D01*
X114758519Y-89076675D01*
X114760275Y-89071363D01*
X114879838Y-88647427D01*
X114881114Y-88641991D01*
X114962520Y-88209092D01*
X114963307Y-88203555D01*
X115005963Y-87764580D01*
X115006236Y-87760143D01*
X115012990Y-87502234D01*
X115012948Y-87497762D01*
X114993327Y-87057177D01*
X114992829Y-87051590D01*
X114934193Y-86615047D01*
X114933200Y-86609524D01*
X114835990Y-86179920D01*
X114834517Y-86174533D01*
X114699499Y-85755261D01*
X114697544Y-85750003D01*
X114525801Y-85344419D01*
X114523382Y-85339348D01*
X114316253Y-84950614D01*
X114313418Y-84945819D01*
X114072538Y-84577013D01*
X114069287Y-84572489D01*
X113796582Y-84226564D01*
X113792934Y-84222338D01*
X113729587Y-84155233D01*
X113715871Y-84147222D01*
X113715000Y-84147259D01*
X113706923Y-84152287D01*
X110372022Y-87487188D01*
X110364408Y-87501132D01*
X109634356Y-87501132D01*
X109635592Y-87498868D01*
X109635461Y-87497035D01*
X109631210Y-87490420D01*
X106293542Y-84152752D01*
X106280234Y-84145485D01*
X106270195Y-84152607D01*
X106008756Y-84466953D01*
X106005361Y-84471425D01*
X105754932Y-84833765D01*
X105751953Y-84838515D01*
X105534719Y-85221695D01*
X105532188Y-85226662D01*
X105349866Y-85627656D01*
X105347788Y-85632824D01*
X105201840Y-86048426D01*
X105200219Y-86053795D01*
X105091798Y-86480705D01*
X105090664Y-86486178D01*
X105020621Y-86921044D01*
X105019976Y-86926622D01*
X104988869Y-87365964D01*
X104988722Y-87371585D01*
X75508500Y-87371585D01*
X75508500Y-83782502D01*
X106646077Y-83782502D01*
X106652184Y-83792974D01*
X109987188Y-87127978D01*
X110001132Y-87135592D01*
X110002965Y-87135461D01*
X110009580Y-87131210D01*
X113344435Y-83796355D01*
X113351998Y-83782505D01*
X113345671Y-83773283D01*
X113156913Y-83605992D01*
X113152551Y-83602459D01*
X112798262Y-83340778D01*
X112793609Y-83337651D01*
X112417453Y-83108495D01*
X112412536Y-83105791D01*
X112017488Y-82910974D01*
X112012379Y-82908732D01*
X111601563Y-82749799D01*
X111596273Y-82748019D01*
X111172954Y-82626234D01*
X111167530Y-82624932D01*
X110735068Y-82541261D01*
X110729539Y-82540445D01*
X110291353Y-82495550D01*
X110285771Y-82495228D01*
X109845346Y-82489463D01*
X109839735Y-82489639D01*
X109400541Y-82523048D01*
X109394984Y-82523720D01*
X108960504Y-82596037D01*
X108955007Y-82597205D01*
X108528680Y-82707858D01*
X108523314Y-82709510D01*
X108108509Y-82857622D01*
X108103321Y-82859739D01*
X107703311Y-83044147D01*
X107698342Y-83046711D01*
X107316308Y-83265948D01*
X107311575Y-83268951D01*
X106950545Y-83521278D01*
X106946104Y-83524686D01*
X106654521Y-83769785D01*
X106646077Y-83782502D01*
X75508500Y-83782502D01*
X75508500Y-66217924D01*
X86647616Y-66217924D01*
X86647665Y-66218616D01*
X86653111Y-66226781D01*
X86742226Y-66310027D01*
X86746503Y-66313681D01*
X87093829Y-66584553D01*
X87098386Y-66587792D01*
X87468432Y-66826727D01*
X87473261Y-66829549D01*
X87863048Y-67034626D01*
X87868150Y-67037027D01*
X88274633Y-67206647D01*
X88279888Y-67208570D01*
X88699860Y-67341389D01*
X88705259Y-67342836D01*
X89135375Y-67437796D01*
X89140886Y-67438758D01*
X89577749Y-67495110D01*
X89583312Y-67495577D01*
X90023453Y-67512869D01*
X90029045Y-67512840D01*
X90468965Y-67490940D01*
X90474548Y-67490412D01*
X90910788Y-67429490D01*
X90916275Y-67428473D01*
X91345381Y-67329012D01*
X91350767Y-67327508D01*
X91769333Y-67190296D01*
X91774550Y-67188324D01*
X92179260Y-67014447D01*
X92184303Y-67012009D01*
X92571943Y-66802850D01*
X92576747Y-66799975D01*
X92944239Y-66557198D01*
X92948802Y-66553883D01*
X93293266Y-66279393D01*
X93297481Y-66275716D01*
X93345286Y-66230112D01*
X93353226Y-66216352D01*
X93353176Y-66215307D01*
X93348285Y-66207495D01*
X90012812Y-62872022D01*
X89998868Y-62864408D01*
X89997035Y-62864539D01*
X89990420Y-62868790D01*
X86655230Y-66203980D01*
X86647616Y-66217924D01*
X75508500Y-66217924D01*
X75508500Y-62371585D01*
X84988722Y-62371585D01*
X84996793Y-62811981D01*
X84997143Y-62817547D01*
X85044333Y-63255491D01*
X85045180Y-63261030D01*
X85131112Y-63693042D01*
X85132441Y-63698453D01*
X85256444Y-64121138D01*
X85258250Y-64126413D01*
X85419326Y-64536377D01*
X85421608Y-64541501D01*
X85618485Y-64935516D01*
X85621209Y-64940409D01*
X85852333Y-65315363D01*
X85855484Y-65319999D01*
X86119031Y-65672931D01*
X86122564Y-65677248D01*
X86271583Y-65843625D01*
X86285079Y-65851989D01*
X86294491Y-65846299D01*
X89627978Y-62512812D01*
X89634356Y-62501132D01*
X90364408Y-62501132D01*
X90364539Y-62502965D01*
X90368790Y-62509580D01*
X93703870Y-65844660D01*
X93717631Y-65852174D01*
X93726992Y-65845716D01*
X93910483Y-65636482D01*
X93913988Y-65632109D01*
X94173825Y-65276435D01*
X94176920Y-65271777D01*
X94404101Y-64894431D01*
X94406782Y-64889492D01*
X94599515Y-64493455D01*
X94601750Y-64488289D01*
X94758519Y-64076675D01*
X94760275Y-64071363D01*
X94879838Y-63647427D01*
X94881114Y-63641991D01*
X94962520Y-63209092D01*
X94963307Y-63203555D01*
X95005963Y-62764580D01*
X95006236Y-62760143D01*
X95012990Y-62502234D01*
X95012948Y-62497762D01*
X94993327Y-62057177D01*
X94992829Y-62051590D01*
X94934193Y-61615047D01*
X94933200Y-61609524D01*
X94835990Y-61179920D01*
X94834517Y-61174533D01*
X94699499Y-60755261D01*
X94697544Y-60750003D01*
X94525801Y-60344419D01*
X94523382Y-60339348D01*
X94316253Y-59950614D01*
X94313418Y-59945819D01*
X94072538Y-59577013D01*
X94069287Y-59572489D01*
X93796582Y-59226564D01*
X93792934Y-59222338D01*
X93729587Y-59155233D01*
X93715871Y-59147222D01*
X93715000Y-59147259D01*
X93706923Y-59152287D01*
X90372022Y-62487188D01*
X90364408Y-62501132D01*
X89634356Y-62501132D01*
X89635592Y-62498868D01*
X89635461Y-62497035D01*
X89631210Y-62490420D01*
X86293542Y-59152752D01*
X86280234Y-59145485D01*
X86270195Y-59152607D01*
X86008756Y-59466953D01*
X86005361Y-59471425D01*
X85754932Y-59833765D01*
X85751953Y-59838515D01*
X85534719Y-60221695D01*
X85532188Y-60226662D01*
X85349866Y-60627656D01*
X85347788Y-60632824D01*
X85201840Y-61048426D01*
X85200219Y-61053795D01*
X85091798Y-61480705D01*
X85090664Y-61486178D01*
X85020621Y-61921044D01*
X85019976Y-61926622D01*
X84988869Y-62365964D01*
X84988722Y-62371585D01*
X75508500Y-62371585D01*
X75508500Y-58782502D01*
X86646077Y-58782502D01*
X86652184Y-58792974D01*
X89987188Y-62127978D01*
X90001132Y-62135592D01*
X90002965Y-62135461D01*
X90009580Y-62131210D01*
X93344435Y-58796355D01*
X93351998Y-58782505D01*
X93345671Y-58773283D01*
X93156913Y-58605992D01*
X93152551Y-58602459D01*
X92798262Y-58340778D01*
X92793609Y-58337651D01*
X92417453Y-58108495D01*
X92412536Y-58105791D01*
X92017488Y-57910974D01*
X92012379Y-57908732D01*
X91601563Y-57749799D01*
X91596273Y-57748019D01*
X91172954Y-57626234D01*
X91167530Y-57624932D01*
X90735068Y-57541261D01*
X90729539Y-57540445D01*
X90291353Y-57495550D01*
X90285771Y-57495228D01*
X89845346Y-57489463D01*
X89839735Y-57489639D01*
X89400541Y-57523048D01*
X89394984Y-57523720D01*
X88960504Y-57596037D01*
X88955007Y-57597205D01*
X88528680Y-57707858D01*
X88523314Y-57709510D01*
X88108509Y-57857622D01*
X88103321Y-57859739D01*
X87703311Y-58044147D01*
X87698342Y-58046711D01*
X87316308Y-58265948D01*
X87311575Y-58268951D01*
X86950545Y-58521278D01*
X86946104Y-58524686D01*
X86654521Y-58769785D01*
X86646077Y-58782502D01*
X75508500Y-58782502D01*
X75508500Y-41217924D01*
X106647616Y-41217924D01*
X106647665Y-41218616D01*
X106653111Y-41226781D01*
X106742226Y-41310027D01*
X106746503Y-41313681D01*
X107093829Y-41584553D01*
X107098386Y-41587792D01*
X107468432Y-41826727D01*
X107473261Y-41829549D01*
X107863048Y-42034626D01*
X107868150Y-42037027D01*
X108274633Y-42206647D01*
X108279888Y-42208570D01*
X108699860Y-42341389D01*
X108705259Y-42342836D01*
X109135375Y-42437796D01*
X109140886Y-42438758D01*
X109577749Y-42495110D01*
X109583312Y-42495577D01*
X110023453Y-42512869D01*
X110029045Y-42512840D01*
X110468965Y-42490940D01*
X110474548Y-42490412D01*
X110910788Y-42429490D01*
X110916275Y-42428473D01*
X111345381Y-42329012D01*
X111350767Y-42327508D01*
X111769333Y-42190296D01*
X111774550Y-42188324D01*
X112179260Y-42014447D01*
X112184303Y-42012009D01*
X112571943Y-41802850D01*
X112576747Y-41799975D01*
X112944239Y-41557198D01*
X112948802Y-41553883D01*
X113293266Y-41279393D01*
X113297481Y-41275716D01*
X113345286Y-41230112D01*
X113353226Y-41216352D01*
X113353176Y-41215307D01*
X113348285Y-41207495D01*
X110012812Y-37872022D01*
X109998868Y-37864408D01*
X109997035Y-37864539D01*
X109990420Y-37868790D01*
X106655230Y-41203980D01*
X106647616Y-41217924D01*
X75508500Y-41217924D01*
X75508500Y-37371585D01*
X104988722Y-37371585D01*
X104996793Y-37811981D01*
X104997143Y-37817547D01*
X105044333Y-38255491D01*
X105045180Y-38261030D01*
X105131112Y-38693042D01*
X105132441Y-38698453D01*
X105256444Y-39121138D01*
X105258250Y-39126413D01*
X105419326Y-39536377D01*
X105421608Y-39541501D01*
X105618485Y-39935516D01*
X105621209Y-39940409D01*
X105852333Y-40315363D01*
X105855484Y-40319999D01*
X106119031Y-40672931D01*
X106122564Y-40677248D01*
X106271583Y-40843625D01*
X106285079Y-40851989D01*
X106294491Y-40846299D01*
X109627978Y-37512812D01*
X109634356Y-37501132D01*
X110364408Y-37501132D01*
X110364539Y-37502965D01*
X110368790Y-37509580D01*
X113703870Y-40844660D01*
X113717631Y-40852174D01*
X113726992Y-40845716D01*
X113910483Y-40636482D01*
X113913988Y-40632109D01*
X114173825Y-40276435D01*
X114176920Y-40271777D01*
X114404101Y-39894431D01*
X114406782Y-39889492D01*
X114599515Y-39493455D01*
X114601750Y-39488289D01*
X114758519Y-39076675D01*
X114760275Y-39071363D01*
X114879838Y-38647427D01*
X114881114Y-38641991D01*
X114962520Y-38209092D01*
X114963307Y-38203555D01*
X115005963Y-37764580D01*
X115006236Y-37760143D01*
X115012990Y-37502234D01*
X115012948Y-37497762D01*
X114993327Y-37057177D01*
X114992829Y-37051590D01*
X114934193Y-36615047D01*
X114933200Y-36609524D01*
X114835990Y-36179920D01*
X114834517Y-36174533D01*
X114699499Y-35755261D01*
X114697544Y-35750003D01*
X114525801Y-35344419D01*
X114523382Y-35339348D01*
X114316253Y-34950614D01*
X114313418Y-34945819D01*
X114072538Y-34577013D01*
X114069287Y-34572489D01*
X113796582Y-34226564D01*
X113792934Y-34222338D01*
X113729587Y-34155233D01*
X113715871Y-34147222D01*
X113715000Y-34147259D01*
X113706923Y-34152287D01*
X110372022Y-37487188D01*
X110364408Y-37501132D01*
X109634356Y-37501132D01*
X109635592Y-37498868D01*
X109635461Y-37497035D01*
X109631210Y-37490420D01*
X106293542Y-34152752D01*
X106280234Y-34145485D01*
X106270195Y-34152607D01*
X106008756Y-34466953D01*
X106005361Y-34471425D01*
X105754932Y-34833765D01*
X105751953Y-34838515D01*
X105534719Y-35221695D01*
X105532188Y-35226662D01*
X105349866Y-35627656D01*
X105347788Y-35632824D01*
X105201840Y-36048426D01*
X105200219Y-36053795D01*
X105091798Y-36480705D01*
X105090664Y-36486178D01*
X105020621Y-36921044D01*
X105019976Y-36926622D01*
X104988869Y-37365964D01*
X104988722Y-37371585D01*
X75508500Y-37371585D01*
X75508500Y-33782502D01*
X106646077Y-33782502D01*
X106652184Y-33792974D01*
X109987188Y-37127978D01*
X110001132Y-37135592D01*
X110002965Y-37135461D01*
X110009580Y-37131210D01*
X113344435Y-33796355D01*
X113351998Y-33782505D01*
X113345671Y-33773283D01*
X113156913Y-33605992D01*
X113152551Y-33602459D01*
X112798262Y-33340778D01*
X112793609Y-33337651D01*
X112417453Y-33108495D01*
X112412536Y-33105791D01*
X112017488Y-32910974D01*
X112012379Y-32908732D01*
X111601563Y-32749799D01*
X111596273Y-32748019D01*
X111172954Y-32626234D01*
X111167530Y-32624932D01*
X110735068Y-32541261D01*
X110729539Y-32540445D01*
X110291353Y-32495550D01*
X110285771Y-32495228D01*
X109845346Y-32489463D01*
X109839735Y-32489639D01*
X109400541Y-32523048D01*
X109394984Y-32523720D01*
X108960504Y-32596037D01*
X108955007Y-32597205D01*
X108528680Y-32707858D01*
X108523314Y-32709510D01*
X108108509Y-32857622D01*
X108103321Y-32859739D01*
X107703311Y-33044147D01*
X107698342Y-33046711D01*
X107316308Y-33265948D01*
X107311575Y-33268951D01*
X106950545Y-33521278D01*
X106946104Y-33524686D01*
X106654521Y-33769785D01*
X106646077Y-33782502D01*
X75508500Y-33782502D01*
X75508500Y-4164697D01*
X75528502Y-4096576D01*
X75582158Y-4050083D01*
X75652432Y-4039979D01*
X75717012Y-4069473D01*
X75744915Y-4103996D01*
X75876330Y-4343039D01*
X75880570Y-4349719D01*
X76061404Y-4598616D01*
X76066443Y-4604707D01*
X76277046Y-4828977D01*
X76282813Y-4834393D01*
X76519868Y-5030502D01*
X76526271Y-5035153D01*
X76786026Y-5199999D01*
X76792959Y-5203811D01*
X77071328Y-5334801D01*
X77078691Y-5337716D01*
X77371277Y-5432783D01*
X77378954Y-5434754D01*
X77681145Y-5492400D01*
X77689006Y-5493393D01*
X77919180Y-5507874D01*
X77923171Y-5508000D01*
X79127885Y-5508000D01*
X79143124Y-5503525D01*
X79144329Y-5502135D01*
X79146000Y-5494452D01*
X79146000Y-5489885D01*
X79654000Y-5489885D01*
X79658475Y-5505124D01*
X79659865Y-5506329D01*
X79667548Y-5508000D01*
X80876829Y-5508000D01*
X80880820Y-5507874D01*
X81110994Y-5493393D01*
X81118855Y-5492400D01*
X81421046Y-5434754D01*
X81428723Y-5432783D01*
X81721309Y-5337716D01*
X81728672Y-5334801D01*
X82007041Y-5203811D01*
X82013974Y-5199999D01*
X82273729Y-5035153D01*
X82280132Y-5030502D01*
X82517187Y-4834393D01*
X82522954Y-4828977D01*
X82733557Y-4604707D01*
X82738596Y-4598616D01*
X82919430Y-4349719D01*
X82923670Y-4343039D01*
X83071890Y-4073428D01*
X83075247Y-4066293D01*
X83188508Y-3780230D01*
X83190953Y-3772704D01*
X83267462Y-3474721D01*
X83268945Y-3466950D01*
X83293575Y-3271974D01*
X83293487Y-3271426D01*
X116706355Y-3271426D01*
X116731055Y-3466950D01*
X116732538Y-3474721D01*
X116809047Y-3772704D01*
X116811492Y-3780230D01*
X116924753Y-4066293D01*
X116928110Y-4073428D01*
X117076330Y-4343039D01*
X117080570Y-4349719D01*
X117261404Y-4598616D01*
X117266443Y-4604707D01*
X117477046Y-4828977D01*
X117482813Y-4834393D01*
X117719868Y-5030502D01*
X117726271Y-5035153D01*
X117986026Y-5199999D01*
X117992959Y-5203811D01*
X118271328Y-5334801D01*
X118278691Y-5337716D01*
X118571277Y-5432783D01*
X118578954Y-5434754D01*
X118881145Y-5492400D01*
X118889006Y-5493393D01*
X119119180Y-5507874D01*
X119123171Y-5508000D01*
X120327885Y-5508000D01*
X120343124Y-5503525D01*
X120344329Y-5502135D01*
X120346000Y-5494452D01*
X120346000Y-3272115D01*
X120341525Y-3256876D01*
X120340135Y-3255671D01*
X120332452Y-3254000D01*
X116722269Y-3254000D01*
X116708392Y-3258075D01*
X116706355Y-3271426D01*
X83293487Y-3271426D01*
X83291272Y-3257694D01*
X83278280Y-3254000D01*
X79672115Y-3254000D01*
X79656876Y-3258475D01*
X79655671Y-3259865D01*
X79654000Y-3267548D01*
X79654000Y-5489885D01*
X79146000Y-5489885D01*
X79146000Y-2872000D01*
X79166002Y-2803879D01*
X79219658Y-2757386D01*
X79272000Y-2746000D01*
X83277731Y-2746000D01*
X83291608Y-2741925D01*
X83293645Y-2728574D01*
X83268945Y-2533050D01*
X83267462Y-2525279D01*
X83190953Y-2227296D01*
X83188508Y-2219770D01*
X83075247Y-1933707D01*
X83071890Y-1926572D01*
X82923670Y-1656961D01*
X82919430Y-1650281D01*
X82738596Y-1401384D01*
X82733557Y-1395293D01*
X82522954Y-1171023D01*
X82517187Y-1165607D01*
X82280132Y-969498D01*
X82273729Y-964847D01*
X82013974Y-800001D01*
X82007041Y-796190D01*
X81905712Y-748508D01*
X81852591Y-701406D01*
X81833368Y-633061D01*
X81854147Y-565173D01*
X81908330Y-519296D01*
X81959360Y-508500D01*
X118040640Y-508500D01*
X118108761Y-528502D01*
G37*
G04 #@! TD.AperFunction*
G04 #@! TD*
M02*
